Setting up supervisor mode
Enabling Virtual Memory
Setting up buffer: 0
Setting up buffer: 1
Setting up buffer: 2
Setting up buffer: 3
Setting up buffer: 4
Setting up buffer: 5
Setting up buffer: 6
Setting up buffer: 7
Setting up buffer: 8
Setting up buffer: 9
Setting up buffer: 10
Setting up buffer: 11
Setting up buffer: 12
Setting up buffer: 13
Setting up buffer: 14
Setting up buffer: 15
Starting Round: 0 Interrupts: 148
Round Success: 0 Interrupts: 182
Starting Round: 1 Interrupts: 182
Round Success: 1 Interrupts: 216
Starting Round: 2 Interrupts: 216
Round Success: 2 Interrupts: 250
Starting Round: 3 Interrupts: 250
Round Success: 3 Interrupts: 284
Starting Round: 4 Interrupts: 286
Round Success: 4 Interrupts: 321
Starting Round: 5 Interrupts: 322
Round Success: 5 Interrupts: 357
Starting Round: 6 Interrupts: 359
Round Success: 6 Interrupts: 394
Starting Round: 7 Interrupts: 396
Round Success: 7 Interrupts: 431
Starting Round: 8 Interrupts: 433
Round Success: 8 Interrupts: 468
Starting Round: 9 Interrupts: 470
Round Success: 9 Interrupts: 505
Starting Round: 10 Interrupts: 507
Round Success: 10 Interrupts: 542
Starting Round: 11 Interrupts: 544
Round Success: 11 Interrupts: 579
Starting Round: 12 Interrupts: 581
Round Success: 12 Interrupts: 616
Starting Round: 13 Interrupts: 618
Round Success: 13 Interrupts: 653
Starting Round: 14 Interrupts: 655
Round Success: 14 Interrupts: 690
Starting Round: 15 Interrupts: 692
Round Success: 15 Interrupts: 727
Starting Round: 16 Interrupts: 729
Round Success: 16 Interrupts: 764
Starting Round: 17 Interrupts: 766
Round Success: 17 Interrupts: 801
Starting Round: 18 Interrupts: 803
Round Success: 18 Interrupts: 838
Starting Round: 19 Interrupts: 840
Round Success: 19 Interrupts: 875
Starting Round: 20 Interrupts: 877
Round Success: 20 Interrupts: 912
Starting Round: 21 Interrupts: 914
Round Success: 21 Interrupts: 949
Starting Round: 22 Interrupts: 951
Round Success: 22 Interrupts: 986
Starting Round: 23 Interrupts: 988
Round Success: 23 Interrupts: 1023
Starting Round: 24 Interrupts: 1025
Round Success: 24 Interrupts: 1060
Starting Round: 25 Interrupts: 1062
Round Success: 25 Interrupts: 1097
Starting Round: 26 Interrupts: 1099
Round Success: 26 Interrupts: 1134
Starting Round: 27 Interrupts: 1136
Round Success: 27 Interrupts: 1171
Starting Round: 28 Interrupts: 1174
Round Success: 28 Interrupts: 1209
Starting Round: 29 Interrupts: 1211
Round Success: 29 Interrupts: 1246
Starting Round: 30 Interrupts: 1248
Round Success: 30 Interrupts: 1283
Starting Round: 31 Interrupts: 1285
Round Success: 31 Interrupts: 1320
Cycles:         0xfa7f00d Instructions Retired:          0xd0bad
Data Cache Hit:       60% Instruction Cache Hit:             66%
Exiting with status: 200
